M48
; DRILL file {KiCad (5.1.4)-1} date 10.08.2021 08:51:19
; FORMAT={-:-/ absolute / inch / decimal}
; #@! TF.CreationDate,2021-08-10T08:51:19+03:00
; #@! TF.GenerationSoftware,Kicad,Pcbnew,(5.1.4)-1
; #@! TF.FileFunction,Plated,1,4,PTH
FMAT,2
INCH
T1C0.0118
T2C0.0157
T3C0.0177
T4C0.0197
T5C0.0315
T6C0.0394
T7C0.0472
T8C0.0709
%
G90
G05
T1
X0.0285Y-6.6407
T2
X-0.8366Y-4.0148
X-0.7579Y-4.0148
X-0.7579Y-4.2116
X-0.6791Y-4.0148
X-0.6791Y-4.2116
X-0.6004Y-4.0148
X-0.6004Y-4.2116
X-0.5217Y-4.0148
X-0.5217Y-4.2116
X-0.4429Y-4.0148
X-0.4429Y-4.2116
X-0.3642Y-4.0148
X-0.3642Y-4.2116
X-0.2854Y-4.0148
X-0.2854Y-4.2116
X-0.2067Y-4.0148
X-0.2067Y-4.2116
X-0.128Y-4.0148
X-0.128Y-4.2116
T3
X-1.1841Y-6.1535
X-1.1444Y-5.7776
X-1.1329Y-5.7421
X-1.0463Y-4.9626
X-1.0108Y-5.6959
X-1.0079Y-5.8327
X-0.9862Y-6.2352
X-0.9803Y-5.1339
X-0.9626Y-7.1555
X-0.9469Y-5.0266
X-0.9301Y-4.8681
X-0.9262Y-4.6909
X-0.8543Y-6.0502
X-0.7963Y-6.034
X-0.7943Y-5.7963
X-0.7523Y-6.1277
X-0.7451Y-5.6161
X-0.7254Y-5.5886
X-0.7008Y-5.7224
X-0.6939Y-5.0906
X-0.688Y-6.3258
X-0.6855Y-5.4566
X-0.6781Y-5.8406
X-0.6516Y-7.1575
X-0.6336Y-6.2874
X-0.6212Y-6.0398
X-0.6195Y-6.0673
X-0.6164Y-6.0947
X-0.6101Y-5.2357
X-0.6009Y-6.0133
X-0.6004Y-7.2205
X-0.5986Y-5.9846
X-0.5985Y-5.9078
X-0.5837Y-5.9556
X-0.5832Y-6.0907
X-0.578Y-6.1178
X-0.5758Y-5.5531
X-0.5622Y-6.3702
X-0.5606Y-5.9152
X-0.5582Y-6.1637
X-0.5571Y-6.503
X-0.5503Y-6.1351
X-0.5394Y-7.0108
X-0.5256Y-6.3711
X-0.5177Y-7.0394
X-0.5167Y-5.4675
X-0.5023Y-5.3523
X-0.4836Y-5.7491
X-0.4802Y-6.1975
X-0.4705Y-6.8553
X-0.4537Y-5.7483
X-0.4528Y-6.2185
X-0.4428Y-5.5849
X-0.4302Y-6.797
X-0.4291Y-6.6634
X-0.4262Y-5.7569
X-0.4179Y-5.2229
X-0.4069Y-6.2131
X-0.3976Y-6.4931
X-0.3975Y-5.7539
X-0.3967Y-6.3012
X-0.393Y-6.1473
X-0.384Y-5.9561
X-0.3816Y-5.3025
X-0.3767Y-5.2432
X-0.3732Y-6.1278
X-0.3701Y-5.7569
X-0.3557Y-5.2906
X-0.3378Y-5.7557
X-0.3295Y-5.2381
X-0.3091Y-6.6644
X-0.3091Y-7.1565
X-0.3069Y-6.2812
X-0.3012Y-6.3642
X-0.2953Y-6.3957
X-0.2953Y-6.9813
X-0.2893Y-6.2033
X-0.2686Y-6.1769
X-0.2638Y-5.7402
X-0.2589Y-6.7972
X-0.2551Y-5.3625
X-0.2527Y-5.2445
X-0.25Y-5.6939
X-0.2441Y-7.1152
X-0.2431Y-5.8199
X-0.2303Y-5.1329
X-0.2244Y-6.9626
X-0.2175Y-5.7874
X-0.2129Y-6.0689
X-0.2087Y-5.7613
X-0.2008Y-6.9291
X-0.1978Y-6.8189
X-0.1973Y-6.0943
X-0.1946Y-5.2674
X-0.1851Y-6.0687
X-0.1812Y-5.812
X-0.1772Y-5.2888
X-0.1752Y-6.4183
X-0.1692Y-5.4439
X-0.1674Y-5.4762
X-0.1645Y-6.0478
X-0.1565Y-6.5246
X-0.1535Y-7.1122
X-0.126Y-6.5276
X-0.0935Y-6.1201
X-0.0856Y-6.5976
X-0.0737Y-6.2885
X-0.06Y-6.7116
X-0.0512Y-4.939
X-0.0404Y-6.1319
X-0.0375Y-5.6871
X-0.0364Y-5.6053
X-0.0344Y-6.5856
X-0.0344Y-6.6427
X-0.0315Y-5.0945
X-0.0276Y-6.252
X-0.0266Y-6.31
X-0.0207Y-6.7372
X-0.0128Y-6.5246
X-0.0049Y-5.4911
X0.0089Y-4.9636
X0.0413Y-4.9272
X0.0709Y-5.7628
X0.1142Y-6.7953
X0.1171Y-5.5728
X0.126Y-5.6112
X0.1614Y-5.5679
X0.1673Y-5.0807
X0.1673Y-7.2431
X0.1685Y-5.3787
X0.1722Y-5.0266
X0.1811Y-5.127
X0.2116Y-5.7598
T4
X-0.7333Y-7.3602
X-0.7657Y-5.6634
X-0.9213Y-5.7795
X-1.0856Y-5.6575
X-1.0541Y-7.3602
X-0.9006Y-7.2382
T5
X0.0717Y-5.9755
X0.0058Y-5.8602
X0.1409Y-5.8686
T6
X-0.8976Y-4.5945
X-0.4843Y-4.5945
X-0.1693Y-4.5945
T7
X-1.1106Y-5.3736
X-0.9984Y-5.2039
X-0.948Y-5.5417
X-0.0504Y-5.5386
X-0.0252Y-5.2051
X0.1646Y-5.4465
X0.1661Y-5.3
T8
X-0.1043Y-6.9626
X-0.1043Y-7.1791
X0.061Y-6.9626
X0.061Y-7.1791
T3
G00X-0.4518Y-7.315
M15
G01X-0.4518Y-7.3465
M16
G05
G00X-0.1703Y-7.315
M15
G01X-0.1703Y-7.3465
M16
G05
T0
M30
