EESchema Schematic File Version 4
LIBS:L80RE_Lora_murata-cache
LIBS:gps_l80-cache
EELAYER 30 0
EELAYER END
$Descr A4 11693 8268
encoding utf-8
Sheet 1 5
Title ""
Date ""
Rev ""
Comp ""
Comment1 ""
Comment2 ""
Comment3 ""
Comment4 ""
$EndDescr
$Sheet
S 8000 2600 2450 1650
U 600048E7
F0 "Sheet600048E6" 50
F1 "lora_sx1262.sch" 50
F2 "NSS" I L 8000 2750 50 
F3 "EXT_SW" I L 8000 2850 50 
F4 "SCK" I L 8000 3050 50 
F5 "MOSI" I L 8000 3150 50 
F6 "MISO" I L 8000 3250 50 
F7 "SX_NRESET" I L 8000 3350 50 
F8 "BUSY" I L 8000 3450 50 
F9 "DIO1" I L 8000 3550 50 
F10 "DIO3" I L 8000 3650 50 
F11 "EXT_SW" I L 8000 3800 50 
F12 "3V3" I L 8000 3900 50 
F13 "GPS_1PPS" I L 8000 4000 50 
F14 "GPS_TIMER" I L 8000 4100 50 
F15 "AADET_N" I L 8000 4200 50 
F16 "GPS_RESET" I R 10450 4100 50 
F17 "UART1_TX" I R 10450 4000 50 
F18 "UART1_RX" I R 10450 3900 50 
$EndSheet
$Sheet
S 900  1650 2100 1300
U 60188217
F0 "Power_Lipo_3v7" 50
F1 "power_lipo_3v7.sch" 50
F2 "3V3E_EN" I R 3000 2500 50 
F3 "3V3" I R 3000 2650 50 
F4 "3V3E" I R 3000 2750 50 
F5 "V_USB" I R 3000 2150 50 
$EndSheet
Wire Wire Line
	6500 2750 8000 2750
Wire Wire Line
	6500 2850 8000 2850
Wire Wire Line
	6500 3000 7850 3000
Wire Wire Line
	7850 3000 7850 3050
Wire Wire Line
	7850 3050 8000 3050
Wire Wire Line
	6500 3100 7800 3100
Wire Wire Line
	7800 3100 7800 3150
Wire Wire Line
	7800 3150 8000 3150
Wire Wire Line
	7900 3200 7900 3250
Wire Wire Line
	7900 3250 8000 3250
Wire Wire Line
	6500 3200 7900 3200
Wire Wire Line
	6500 3300 7800 3300
Wire Wire Line
	7800 3300 7800 3350
Wire Wire Line
	7800 3350 8000 3350
Wire Wire Line
	6500 3400 7750 3400
Wire Wire Line
	7750 3400 7750 3450
Wire Wire Line
	7750 3450 8000 3450
Wire Wire Line
	6500 3500 7700 3500
Wire Wire Line
	7700 3500 7700 3550
Wire Wire Line
	7700 3550 8000 3550
Wire Wire Line
	3000 2500 4450 2500
Wire Wire Line
	4450 2500 4450 2600
Wire Wire Line
	4450 2600 4600 2600
Wire Wire Line
	3000 2650 4050 2650
Wire Wire Line
	4350 2650 4350 2700
Wire Wire Line
	4350 2700 4600 2700
Wire Wire Line
	4400 2750 4400 2800
Wire Wire Line
	4400 2800 4600 2800
Wire Wire Line
	8000 3650 6500 3650
$Sheet
S 4600 1750 1900 2550
U 6005F2C2
F0 "stm32l4" 50
F1 "stm32l4.sch" 50
F2 "NSS" I R 6500 2750 50 
F3 "EXT_SW" I R 6500 2850 50 
F4 "SCK" I R 6500 3000 50 
F5 "MOSI" I R 6500 3100 50 
F6 "MISO" I R 6500 3200 50 
F7 "SX_NRESET" I R 6500 3300 50 
F8 "BUSY" I R 6500 3400 50 
F9 "DIO1" I R 6500 3500 50 
F10 "3V3E_EN" I L 4600 2600 50 
F11 "3V3" I L 4600 2700 50 
F12 "3V3E" I L 4600 2800 50 
F13 "DIO3" I R 6500 3650 50 
F14 "EXT_SW" I R 6500 3800 50 
F15 "V_USB" I L 4600 2150 50 
F16 "GPS_1PPS" I R 6500 3950 50 
F17 "GPS_TIMER" I R 6500 4050 50 
F18 "AADET_N" I R 6500 4150 50 
F19 "UART1_RX" I R 6500 2650 50 
F20 "UART1_TX" I R 6500 2550 50 
F21 "GPS_RESET" I R 6500 2450 50 
F22 "HORNEN" I L 4600 3100 50 
F23 "ADS_SCK" I L 4600 3400 50 
F24 "ADS_OUT" I L 4600 3500 50 
$EndSheet
Wire Wire Line
	6500 3800 8000 3800
Wire Wire Line
	8000 3900 7150 3900
Wire Wire Line
	7150 3900 7150 4450
Wire Wire Line
	4050 4450 4050 2650
Connection ~ 4050 2650
Wire Wire Line
	4050 2650 4350 2650
Wire Wire Line
	3000 2750 4400 2750
Wire Wire Line
	3000 2150 4600 2150
Wire Wire Line
	6500 4150 7750 4150
Wire Wire Line
	7750 4150 7750 4200
Wire Wire Line
	7750 4200 8000 4200
Wire Wire Line
	8000 4100 6600 4100
Wire Wire Line
	6600 4100 6600 4050
Wire Wire Line
	6600 4050 6500 4050
Wire Wire Line
	6500 3950 7900 3950
Wire Wire Line
	7900 3950 7900 4000
Wire Wire Line
	7900 4000 8000 4000
Wire Wire Line
	6500 2650 7800 2650
Wire Wire Line
	7800 2650 7800 2450
Wire Wire Line
	7800 2450 10550 2450
Wire Wire Line
	10550 2450 10550 3900
Wire Wire Line
	10550 3900 10450 3900
Wire Wire Line
	10450 4000 10650 4000
Wire Wire Line
	10650 4000 10650 2350
Wire Wire Line
	10650 2350 7700 2350
Wire Wire Line
	7700 2350 7700 2550
Wire Wire Line
	7700 2550 6500 2550
Wire Wire Line
	6500 2450 7550 2450
Wire Wire Line
	7550 2450 7550 2300
Wire Wire Line
	7550 2300 10850 2300
Wire Wire Line
	10850 2300 10850 4100
Wire Wire Line
	10850 4100 10450 4100
$Sheet
S 1950 5350 2150 1600
U 6112A4C8
F0 "ADS123" 50
F1 "ads123.sch" 50
F2 "3V3E" I R 4100 5600 50 
F3 "HORNEN" I R 4100 5750 50 
F4 "ADS_SCK" I R 4100 6100 50 
F5 "ADS_OUT" I R 4100 6250 50 
$EndSheet
Wire Wire Line
	7150 4450 4050 4450
Wire Wire Line
	4100 5600 4400 5600
Wire Wire Line
	4400 5600 4400 2800
Connection ~ 4400 2800
Wire Wire Line
	4100 5750 4500 5750
Wire Wire Line
	4500 5750 4500 3100
Wire Wire Line
	4500 3100 4600 3100
Wire Wire Line
	4100 6100 4850 6100
Wire Wire Line
	4850 6100 4850 4850
Wire Wire Line
	4850 4850 3850 4850
Wire Wire Line
	3850 3400 4600 3400
Wire Wire Line
	3850 3400 3850 4850
Wire Wire Line
	4600 3500 3900 3500
Wire Wire Line
	3900 3500 3900 4800
Wire Wire Line
	3900 4800 4950 4800
Wire Wire Line
	4950 4800 4950 6250
Wire Wire Line
	4950 6250 4100 6250
$EndSCHEMATC
