EESchema Schematic File Version 4
LIBS:L80RE_Lora_murata-cache
LIBS:gps_l80-cache
EELAYER 30 0
EELAYER END
$Descr A4 11693 8268
encoding utf-8
Sheet 2 5
Title ""
Date ""
Rev ""
Comp ""
Comment1 ""
Comment2 ""
Comment3 ""
Comment4 ""
$EndDescr
$Comp
L power:GND #PWR0101
U 1 1 5DEF870A
P 3150 3850
F 0 "#PWR0101" H 3150 3600 50  0001 C CNN
F 1 "GND" H 3155 3677 50  0000 C CNN
F 2 "" H 3150 3850 50  0001 C CNN
F 3 "" H 3150 3850 50  0001 C CNN
	1    3150 3850
	-1   0    0    1   
$EndComp
$Comp
L Device:C C6
U 1 1 5DEF9E97
P 1850 4350
F 0 "C6" H 1965 4396 50  0000 L CNN
F 1 "15pF 0402" H 1965 4305 50  0000 L CNN
F 2 "Capacitor_SMD:C_0402_1005Metric" H 1888 4200 50  0001 C CNN
F 3 "~" H 1850 4350 50  0001 C CNN
	1    1850 4350
	1    0    0    -1  
$EndComp
$Comp
L Device:C C7
U 1 1 5DEFA613
P 1850 4950
F 0 "C7" H 1965 4996 50  0000 L CNN
F 1 "15pF 0402" H 1965 4905 50  0000 L CNN
F 2 "Capacitor_SMD:C_0402_1005Metric" H 1888 4800 50  0001 C CNN
F 3 "~" H 1850 4950 50  0001 C CNN
	1    1850 4950
	1    0    0    -1  
$EndComp
$Comp
L Device:C C10
U 1 1 5DEFA6DC
P 2900 3900
F 0 "C10" H 3015 3946 50  0000 L CNN
F 1 "10nF 0402" H 3015 3855 50  0000 L CNN
F 2 "Capacitor_SMD:C_0402_1005Metric" H 2938 3750 50  0001 C CNN
F 3 "~" H 2900 3900 50  0001 C CNN
	1    2900 3900
	1    0    0    -1  
$EndComp
$Comp
L Device:C C15
U 1 1 5DEFAF12
P 3350 6500
F 0 "C15" H 3465 6546 50  0000 L CNN
F 1 "0.47uF 0402" H 3465 6455 50  0000 L CNN
F 2 "Capacitor_SMD:C_0402_1005Metric" H 3388 6350 50  0001 C CNN
F 3 "~" H 3350 6500 50  0001 C CNN
	1    3350 6500
	1    0    0    -1  
$EndComp
$Comp
L Device:C C19
U 1 1 5DEFB206
P 4650 6050
F 0 "C19" H 4765 6096 50  0000 L CNN
F 1 "0.1uF 0402" H 4765 6005 50  0000 L CNN
F 2 "Capacitor_SMD:C_0402_1005Metric" H 4688 5900 50  0001 C CNN
F 3 "~" H 4650 6050 50  0001 C CNN
	1    4650 6050
	0    -1   -1   0   
$EndComp
$Comp
L Device:C C9
U 1 1 5DEFB240
P 2850 2350
F 0 "C9" H 2965 2396 50  0000 L CNN
F 1 "1.0pF +/- 0.1pF 0402" H 2965 2305 50  0000 L CNN
F 2 "Capacitor_SMD:C_0402_1005Metric" H 2888 2200 50  0001 C CNN
F 3 "~" H 2850 2350 50  0001 C CNN
	1    2850 2350
	1    0    0    -1  
$EndComp
$Comp
L Device:C C8
U 1 1 5DEFB29B
P 2300 3000
F 0 "C8" H 2415 3046 50  0000 L CNN
F 1 "3,9pF +/-0.25pF 0402" H 2415 2955 50  0000 L CNN
F 2 "Capacitor_SMD:C_0402_1005Metric" H 2338 2850 50  0001 C CNN
F 3 "~" H 2300 3000 50  0001 C CNN
	1    2300 3000
	0    -1   -1   0   
$EndComp
$Comp
L Device:C C12
U 1 1 5DEFB30F
P 3100 3100
F 0 "C12" H 3215 3146 50  0000 L CNN
F 1 "47pF 0402" H 3215 3055 50  0000 L CNN
F 2 "Capacitor_SMD:C_0402_1005Metric" H 3138 2950 50  0001 C CNN
F 3 "~" H 3100 3100 50  0001 C CNN
	1    3100 3100
	0    1    1    0   
$EndComp
$Comp
L Device:C C13
U 1 1 5DEFB557
P 3100 3500
F 0 "C13" H 3215 3546 50  0000 L CNN
F 1 "47nF 0402" H 3215 3455 50  0000 L CNN
F 2 "Capacitor_SMD:C_0402_1005Metric" H 3138 3350 50  0001 C CNN
F 3 "~" H 3100 3500 50  0001 C CNN
	1    3100 3500
	0    1    1    0   
$EndComp
$Comp
L Device:C C14
U 1 1 5DEFB875
P 3200 2150
F 0 "C14" H 3315 2196 50  0000 L CNN
F 1 "1nF 0402" H 3315 2105 50  0000 L CNN
F 2 "Capacitor_SMD:C_0402_1005Metric" H 3238 2000 50  0001 C CNN
F 3 "~" H 3200 2150 50  0001 C CNN
	1    3200 2150
	1    0    0    -1  
$EndComp
$Comp
L Device:C C17
U 1 1 5DEFB908
P 4150 2400
F 0 "C17" H 4265 2446 50  0000 L CNN
F 1 "1.8pF +/-0.1pF 0402" H 4265 2355 50  0000 L CNN
F 2 "Capacitor_SMD:C_0402_1005Metric" H 4188 2250 50  0001 C CNN
F 3 "~" H 4150 2400 50  0001 C CNN
	1    4150 2400
	1    0    0    -1  
$EndComp
$Comp
L pspice:INDUCTOR L3
U 1 1 5DEFCCF4
P 3050 6050
F 0 "L3" H 3050 6265 50  0000 C CNN
F 1 "47nH 0402" H 3050 6174 50  0000 C CNN
F 2 "Inductor_SMD:L_0402_1005Metric" H 3050 6050 50  0001 C CNN
F 3 "~" H 3050 6050 50  0001 C CNN
	1    3050 6050
	1    0    0    -1  
$EndComp
$Comp
L pspice:INDUCTOR L2
U 1 1 5DEFCF22
P 2300 3350
F 0 "L2" H 2300 3565 50  0000 C CNN
F 1 "2.2nH 0402" H 2300 3474 50  0000 C CNN
F 2 "Inductor_SMD:L_0402_1005Metric" H 2300 3350 50  0001 C CNN
F 3 "~" H 2300 3350 50  0001 C CNN
	1    2300 3350
	1    0    0    -1  
$EndComp
$Comp
L pspice:INDUCTOR L4
U 1 1 5DEFD0F0
P 3650 3100
F 0 "L4" H 3650 3315 50  0000 C CNN
F 1 "47nH 0402" H 3650 3224 50  0000 C CNN
F 2 "Inductor_SMD:L_0402_1005Metric" H 3650 3100 50  0001 C CNN
F 3 "~" H 3650 3100 50  0001 C CNN
	1    3650 3100
	1    0    0    -1  
$EndComp
$Comp
L pspice:INDUCTOR L6
U 1 1 5DEFD22A
P 4150 2950
F 0 "L6" H 4150 3165 50  0000 C CNN
F 1 "18nH 0402" H 4150 3074 50  0000 C CNN
F 2 "Inductor_SMD:L_0402_1005Metric" H 4150 2950 50  0001 C CNN
F 3 "~" H 4150 2950 50  0001 C CNN
	1    4150 2950
	0    1    1    0   
$EndComp
$Comp
L pspice:INDUCTOR L1
U 1 1 5DEFD3CC
P 1200 3000
F 0 "L1" H 1200 3215 50  0000 C CNN
F 1 "9.5nH 0402" H 1200 3124 50  0000 C CNN
F 2 "Inductor_SMD:L_0402_1005Metric" H 1200 3000 50  0001 C CNN
F 3 "~" H 1200 3000 50  0001 C CNN
	1    1200 3000
	1    0    0    -1  
$EndComp
$Comp
L Device:R R2
U 1 1 5DEFD9C4
P 3600 2150
F 0 "R2" H 3670 2196 50  0000 L CNN
F 1 "22R 0402" H 3670 2105 50  0000 L CNN
F 2 "Resistor_SMD:R_0402_1005Metric" V 3530 2150 50  0001 C CNN
F 3 "~" H 3600 2150 50  0001 C CNN
	1    3600 2150
	1    0    0    -1  
$EndComp
$Comp
L Device:R R1
U 1 1 5DEFEA1A
P 3250 1100
F 0 "R1" H 3320 1146 50  0000 L CNN
F 1 "1K 0402" H 3320 1055 50  0000 L CNN
F 2 "Resistor_SMD:R_0402_1005Metric" V 3180 1100 50  0001 C CNN
F 3 "~" H 3250 1100 50  0001 C CNN
	1    3250 1100
	0    1    1    0   
$EndComp
$Comp
L power:GND #PWR0102
U 1 1 5DF0BFA0
P 1600 4600
F 0 "#PWR0102" H 1600 4350 50  0001 C CNN
F 1 "GND" H 1605 4427 50  0000 C CNN
F 2 "" H 1600 4600 50  0001 C CNN
F 3 "" H 1600 4600 50  0001 C CNN
	1    1600 4600
	1    0    0    -1  
$EndComp
Wire Wire Line
	3300 4250 3150 4250
$Comp
L Device:Crystal_GND24 Y1
U 1 1 5DEF91A7
P 700 4650
F 0 "Y1" V 654 4894 50  0000 L CNN
F 1 "Crystal_GND24" V 745 4894 50  0000 L CNN
F 2 "Crystal:Crystal_SMD_3225-4Pin_3.2x2.5mm" H 700 4650 50  0001 C CNN
F 3 "~" H 700 4650 50  0001 C CNN
	1    700  4650
	0    1    1    0   
$EndComp
Wire Wire Line
	3150 3850 3300 3850
Wire Wire Line
	2900 4050 3300 4050
Text Label 3050 4050 0    50   ~ 0
VDD_IN
Text Label 2750 6050 2    50   ~ 0
VDD_IN
Wire Wire Line
	3700 5500 3700 6050
$Comp
L pspice:INDUCTOR L5
U 1 1 5DEFBCA0
P 3950 6050
F 0 "L5" V 3904 6128 50  0000 L CNN
F 1 "15uH" V 3995 6128 50  0000 L CNN
F 2 "Inductor_SMD:L_0805_2012Metric" H 3950 6050 50  0001 C CNN
F 3 "~" H 3950 6050 50  0001 C CNN
	1    3950 6050
	1    0    0    -1  
$EndComp
Wire Wire Line
	4200 6050 4200 5800
Wire Wire Line
	4200 5800 4100 5800
Wire Wire Line
	4100 5800 4100 5500
$Comp
L power:GND #PWR0103
U 1 1 5DF19E93
P 3900 5600
F 0 "#PWR0103" H 3900 5350 50  0001 C CNN
F 1 "GND" H 3905 5427 50  0000 C CNN
F 2 "" H 3900 5600 50  0001 C CNN
F 3 "" H 3900 5600 50  0001 C CNN
	1    3900 5600
	1    0    0    -1  
$EndComp
Wire Wire Line
	3900 5500 3900 5600
Wire Wire Line
	2750 6050 2800 6050
Wire Wire Line
	3300 6050 3400 6050
Connection ~ 3700 6050
$Comp
L power:GND #PWR0104
U 1 1 5DF1D140
P 3150 4250
F 0 "#PWR0104" H 3150 4000 50  0001 C CNN
F 1 "GND" V 3155 4122 50  0000 R CNN
F 2 "" H 3150 4250 50  0001 C CNN
F 3 "" H 3150 4250 50  0001 C CNN
	1    3150 4250
	0    1    1    0   
$EndComp
Wire Wire Line
	3300 4450 2350 4450
Wire Wire Line
	2350 4450 2350 4200
Wire Wire Line
	2350 4200 1850 4200
Wire Wire Line
	1850 4200 700  4200
Wire Wire Line
	700  4200 700  4500
Connection ~ 1850 4200
Wire Wire Line
	700  4800 700  5100
Wire Wire Line
	700  5100 1850 5100
Wire Wire Line
	1850 5100 2350 5100
Wire Wire Line
	2350 5100 2350 4650
Wire Wire Line
	2350 4650 3300 4650
Connection ~ 1850 5100
Wire Wire Line
	1600 4600 1850 4600
Wire Wire Line
	1850 4600 1850 4500
Wire Wire Line
	1850 4600 1850 4800
Connection ~ 1850 4600
Wire Wire Line
	900  4650 1050 4650
Wire Wire Line
	1050 4650 1050 4600
Wire Wire Line
	1050 4600 1600 4600
Connection ~ 1600 4600
$Comp
L power:GND #PWR0105
U 1 1 5DF2166B
P 350 4650
F 0 "#PWR0105" H 350 4400 50  0001 C CNN
F 1 "GND" H 355 4477 50  0000 C CNN
F 2 "" H 350 4650 50  0001 C CNN
F 3 "" H 350 4650 50  0001 C CNN
	1    350  4650
	1    0    0    -1  
$EndComp
Wire Wire Line
	350  4650 500  4650
$Comp
L power:GND #PWR0106
U 1 1 5DF2299F
P 3100 4850
F 0 "#PWR0106" H 3100 4600 50  0001 C CNN
F 1 "GND" H 3105 4677 50  0000 C CNN
F 2 "" H 3100 4850 50  0001 C CNN
F 3 "" H 3100 4850 50  0001 C CNN
	1    3100 4850
	0    1    1    0   
$EndComp
Wire Wire Line
	3300 4850 3100 4850
Wire Wire Line
	3400 6050 3400 6350
Wire Wire Line
	3400 6350 3350 6350
Connection ~ 3400 6050
Wire Wire Line
	3400 6050 3700 6050
$Comp
L power:GND #PWR0107
U 1 1 5DF2DA26
P 3050 6700
F 0 "#PWR0107" H 3050 6450 50  0001 C CNN
F 1 "GND" H 3055 6527 50  0000 C CNN
F 2 "" H 3050 6700 50  0001 C CNN
F 3 "" H 3050 6700 50  0001 C CNN
	1    3050 6700
	1    0    0    -1  
$EndComp
Wire Wire Line
	3050 6650 3050 6700
Wire Wire Line
	3050 6650 3350 6650
Wire Wire Line
	3300 5050 3150 5050
Text HLabel 3150 5050 0    50   Output ~ 0
DIO3
Wire Wire Line
	4300 5500 4300 5550
Wire Wire Line
	4300 6050 4500 6050
Wire Wire Line
	4500 6050 4500 5500
$Comp
L Device:C C18
U 1 1 5DEFAFFC
P 4300 6200
F 0 "C18" H 4415 6246 50  0000 L CNN
F 1 "10uF 0603" H 4415 6155 50  0000 L CNN
F 2 "Capacitor_SMD:C_0805_2012Metric" H 4338 6050 50  0001 C CNN
F 3 "~" H 4300 6200 50  0001 C CNN
	1    4300 6200
	1    0    0    -1  
$EndComp
Text HLabel 1350 5900 2    50   Output ~ 0
3V3A
Wire Wire Line
	1200 5900 1350 5900
Wire Wire Line
	1200 5900 1200 6100
Wire Wire Line
	1150 5900 1200 5900
Wire Wire Line
	750  5900 850  5900
Wire Wire Line
	750  6100 750  5900
Wire Wire Line
	950  6400 1100 6400
Connection ~ 950  6400
Wire Wire Line
	950  6400 950  6450
$Comp
L power:GND #PWR0109
U 1 1 5DF41FE8
P 950 6450
F 0 "#PWR0109" H 950 6200 50  0001 C CNN
F 1 "GND" H 955 6277 50  0000 C CNN
F 2 "" H 950 6450 50  0001 C CNN
F 3 "" H 950 6450 50  0001 C CNN
	1    950  6450
	1    0    0    -1  
$EndComp
Wire Wire Line
	750  6400 950  6400
$Comp
L Device:Ferrite_Bead FB1
U 1 1 5DF406C5
P 1000 5900
F 0 "FB1" V 726 5900 50  0000 C CNN
F 1 "FB120 0402" V 817 5900 50  0000 C CNN
F 2 "Inductor_SMD:L_0402_1005Metric" V 930 5900 50  0001 C CNN
F 3 "~" H 1000 5900 50  0001 C CNN
	1    1000 5900
	0    1    1    0   
$EndComp
$Comp
L Device:C C3
U 1 1 5DEFAC40
P 1200 6250
F 0 "C3" H 1315 6296 50  0000 L CNN
F 1 "0.1uF 0402" H 1315 6205 50  0000 L CNN
F 2 "Capacitor_SMD:C_0402_1005Metric" H 1238 6100 50  0001 C CNN
F 3 "~" H 1200 6250 50  0001 C CNN
	1    1200 6250
	1    0    0    -1  
$EndComp
$Comp
L Device:C C1
U 1 1 5DEFAB0C
P 750 6250
F 0 "C1" H 865 6296 50  0000 L CNN
F 1 "0.1uF 0402" H 865 6205 50  0000 L CNN
F 2 "Capacitor_SMD:C_0402_1005Metric" H 788 6100 50  0001 C CNN
F 3 "~" H 750 6250 50  0001 C CNN
	1    750  6250
	1    0    0    -1  
$EndComp
Connection ~ 4300 6050
Connection ~ 4500 6050
$Comp
L power:GND #PWR0110
U 1 1 5DF59CC2
P 4300 6350
F 0 "#PWR0110" H 4300 6100 50  0001 C CNN
F 1 "GND" H 4305 6177 50  0000 C CNN
F 2 "" H 4300 6350 50  0001 C CNN
F 3 "" H 4300 6350 50  0001 C CNN
	1    4300 6350
	1    0    0    -1  
$EndComp
$Comp
L power:GND #PWR0111
U 1 1 5DF5ABBB
P 4800 6100
F 0 "#PWR0111" H 4800 5850 50  0001 C CNN
F 1 "GND" H 4805 5927 50  0000 C CNN
F 2 "" H 4800 6100 50  0001 C CNN
F 3 "" H 4800 6100 50  0001 C CNN
	1    4800 6100
	1    0    0    -1  
$EndComp
Wire Wire Line
	4800 6050 4800 6100
Text HLabel 4400 5700 3    50   Output ~ 0
3V3A
Wire Wire Line
	4400 5550 4400 5700
Wire Wire Line
	4400 5550 4300 5550
Connection ~ 4300 5550
Wire Wire Line
	4300 5550 4300 6050
Text HLabel 5150 5050 2    50   Output ~ 0
DIO1
Wire Wire Line
	3600 2000 3200 2000
Text HLabel 4850 5500 2    50   Output ~ 0
DIO2
Wire Wire Line
	4700 5500 4850 5500
$Comp
L L80RE_Lora_murata-rescue:SX1261IMLTRT-stm32wb_lora_EU_card-rescue U?
U 1 1 5DEC7438
P 4150 4550
AR Path="/5DEC7438" Ref="U?"  Part="1" 
AR Path="/5DE70C26/5DEC7438" Ref="U?"  Part="1" 
AR Path="/600048E7/5DEC7438" Ref="U2"  Part="1" 
F 0 "U2" H 3681 4646 50  0000 L CNN
F 1 "SX1261IMLTRT" H 3681 4555 50  0000 L CNN
F 2 "stm32wb_lora_EU_card444:QFN50P400X400X100-25N" H 4150 4700 50  0001 C CNN
F 3 "" H 4150 4700 50  0001 C CNN
	1    4150 4550
	1    0    0    -1  
$EndComp
Text HLabel 3600 2350 3    50   Output ~ 0
DIO2
Wire Wire Line
	3600 2300 3600 2350
$Comp
L power:GND #PWR0112
U 1 1 5DF87233
P 3200 2350
F 0 "#PWR0112" H 3200 2100 50  0001 C CNN
F 1 "GND" H 3205 2177 50  0000 C CNN
F 2 "" H 3200 2350 50  0001 C CNN
F 3 "" H 3200 2350 50  0001 C CNN
	1    3200 2350
	1    0    0    -1  
$EndComp
Wire Wire Line
	3200 2300 3200 2350
Wire Wire Line
	3200 2000 2850 2000
Connection ~ 3200 2000
Text HLabel 5150 4850 2    50   Output ~ 0
BUSY
Wire Wire Line
	5050 4850 5150 4850
Text HLabel 5150 4650 2    50   Output ~ 0
SX_NRESET
Wire Wire Line
	5150 5050 5050 5050
Wire Wire Line
	5150 4650 5050 4650
Text HLabel 5050 4250 2    50   Output ~ 0
MOSI
Text HLabel 5050 4450 2    50   Output ~ 0
MISO
Text HLabel 5050 4050 2    50   Output ~ 0
SCK
Text HLabel 4750 3550 1    50   Output ~ 0
NSS
$Comp
L power:GND #PWR0113
U 1 1 5DFB33DD
P 4550 3450
F 0 "#PWR0113" H 4550 3200 50  0001 C CNN
F 1 "GND" H 4555 3277 50  0000 C CNN
F 2 "" H 4550 3450 50  0001 C CNN
F 3 "" H 4550 3450 50  0001 C CNN
	1    4550 3450
	-1   0    0    1   
$EndComp
Wire Wire Line
	4550 3550 4550 3450
$Comp
L power:GND #PWR0114
U 1 1 5DFBAFD7
P 4150 2200
F 0 "#PWR0114" H 4150 1950 50  0001 C CNN
F 1 "GND" H 4155 2027 50  0000 C CNN
F 2 "" H 4150 2200 50  0001 C CNN
F 3 "" H 4150 2200 50  0001 C CNN
	1    4150 2200
	-1   0    0    1   
$EndComp
Wire Wire Line
	4150 3550 4150 3300
Wire Wire Line
	4150 2700 4150 2600
Wire Wire Line
	4150 2250 4150 2200
Wire Wire Line
	4150 2600 4350 2600
Wire Wire Line
	4350 2600 4350 3550
Connection ~ 4150 2600
Wire Wire Line
	4150 2600 4150 2550
Wire Wire Line
	4150 3300 4000 3300
Connection ~ 4150 3300
Wire Wire Line
	4150 3300 4150 3200
Wire Wire Line
	4000 2850 4000 3300
$Comp
L power:GND #PWR0115
U 1 1 5DFD9433
P 2850 2550
F 0 "#PWR0115" H 2850 2300 50  0001 C CNN
F 1 "GND" H 2855 2377 50  0000 C CNN
F 2 "" H 2850 2550 50  0001 C CNN
F 3 "" H 2850 2550 50  0001 C CNN
	1    2850 2550
	1    0    0    -1  
$EndComp
Wire Wire Line
	3050 2850 3050 2200
Wire Wire Line
	3050 2200 2850 2200
Wire Wire Line
	2850 2200 2150 2200
Wire Wire Line
	2150 2000 2150 2200
Connection ~ 2850 2200
Wire Wire Line
	2850 2500 2850 2550
Connection ~ 1200 5900
$Comp
L Device:C C16
U 1 1 5DEFB2D5
P 3450 2850
F 0 "C16" H 3565 2896 50  0000 L CNN
F 1 "1.8pF +/-0.1pF 0402" H 3565 2805 50  0000 L CNN
F 2 "Capacitor_SMD:C_0402_1005Metric" H 3488 2700 50  0001 C CNN
F 3 "~" H 3450 2850 50  0001 C CNN
	1    3450 2850
	0    -1   -1   0   
$EndComp
Wire Wire Line
	3600 2850 4000 2850
Wire Wire Line
	3050 2850 3300 2850
$Comp
L power:GND #PWR0116
U 1 1 5DFF7568
P 2050 1900
F 0 "#PWR0116" H 2050 1650 50  0001 C CNN
F 1 "GND" H 2055 1727 50  0000 C CNN
F 2 "" H 2050 1900 50  0001 C CNN
F 3 "" H 2050 1900 50  0001 C CNN
	1    2050 1900
	1    0    0    -1  
$EndComp
Wire Wire Line
	2150 1900 2050 1900
Wire Wire Line
	3400 3100 3250 3100
Wire Wire Line
	3250 3100 3250 3500
Connection ~ 3250 3100
Wire Wire Line
	3250 3500 3650 3500
Wire Wire Line
	3650 3500 3650 3550
Connection ~ 3250 3500
Wire Wire Line
	2950 3100 2950 3500
Wire Wire Line
	2900 3750 2950 3750
Wire Wire Line
	3050 3750 3050 3850
Wire Wire Line
	3050 3850 3150 3850
Connection ~ 3150 3850
Wire Wire Line
	2950 3500 2950 3750
Connection ~ 2950 3500
Connection ~ 2950 3750
Wire Wire Line
	2950 3750 3050 3750
Wire Wire Line
	3900 3100 3900 3000
Wire Wire Line
	2550 3350 2600 3350
Connection ~ 3900 3100
Wire Wire Line
	2450 3000 2600 3000
Wire Wire Line
	2600 3000 2600 3350
Wire Wire Line
	2150 3000 2000 3000
Wire Wire Line
	2000 3000 2000 3350
Wire Wire Line
	2000 3350 2050 3350
Wire Wire Line
	3900 3100 3900 3550
Wire Wire Line
	2600 3000 3900 3000
Connection ~ 2600 3000
$Comp
L Device:C C5
U 1 1 5E04184B
P 1850 3200
F 0 "C5" H 1965 3246 50  0000 L CNN
F 1 "10pF +/-5% 0402" H 1965 3155 50  0000 L CNN
F 2 "Capacitor_SMD:C_0402_1005Metric" H 1888 3050 50  0001 C CNN
F 3 "~" H 1850 3200 50  0001 C CNN
	1    1850 3200
	-1   0    0    1   
$EndComp
$Comp
L power:GND #PWR0117
U 1 1 5E041851
P 1850 3400
F 0 "#PWR0117" H 1850 3150 50  0001 C CNN
F 1 "GND" H 1855 3227 50  0000 C CNN
F 2 "" H 1850 3400 50  0001 C CNN
F 3 "" H 1850 3400 50  0001 C CNN
	1    1850 3400
	1    0    0    -1  
$EndComp
Wire Wire Line
	1850 3350 1850 3400
$Comp
L Device:C C4
U 1 1 5E044E8B
P 1700 3000
F 0 "C4" H 1815 3046 50  0000 L CNN
F 1 "33pF 5% 0402" H 1815 2955 50  0000 L CNN
F 2 "Capacitor_SMD:C_0402_1005Metric" H 1738 2850 50  0001 C CNN
F 3 "~" H 1700 3000 50  0001 C CNN
	1    1700 3000
	0    -1   -1   0   
$EndComp
Wire Wire Line
	1850 3000 1850 3050
Wire Wire Line
	1850 3000 2000 3000
Connection ~ 1850 3000
Connection ~ 2000 3000
Wire Wire Line
	1550 3000 1450 3000
$Comp
L Device:C C2
U 1 1 5E057E7E
P 900 3200
F 0 "C2" H 1015 3246 50  0000 L CNN
F 1 "3pF +/-0.1pF 0402" H 1015 3155 50  0000 L CNN
F 2 "Capacitor_SMD:C_0402_1005Metric" H 938 3050 50  0001 C CNN
F 3 "~" H 900 3200 50  0001 C CNN
	1    900  3200
	-1   0    0    1   
$EndComp
$Comp
L power:GND #PWR0118
U 1 1 5E057E84
P 900 3400
F 0 "#PWR0118" H 900 3150 50  0001 C CNN
F 1 "GND" H 905 3227 50  0000 C CNN
F 2 "" H 900 3400 50  0001 C CNN
F 3 "" H 900 3400 50  0001 C CNN
	1    900  3400
	1    0    0    -1  
$EndComp
Wire Wire Line
	900  3350 900  3400
Wire Wire Line
	900  3000 900  3050
Wire Wire Line
	900  3000 950  3000
Wire Wire Line
	900  3000 900  1800
Wire Wire Line
	900  1800 2150 1800
Connection ~ 900  3000
$Comp
L Device:C C11
U 1 1 5E06614E
P 2950 1450
F 0 "C11" H 3065 1496 50  0000 L CNN
F 1 "1nF 0402" H 3065 1405 50  0000 L CNN
F 2 "Capacitor_SMD:C_0402_1005Metric" H 2988 1300 50  0001 C CNN
F 3 "~" H 2950 1450 50  0001 C CNN
	1    2950 1450
	0    -1   -1   0   
$EndComp
$Comp
L power:GND #PWR0119
U 1 1 5E066154
P 2750 1450
F 0 "#PWR0119" H 2750 1200 50  0001 C CNN
F 1 "GND" H 2755 1277 50  0000 C CNN
F 2 "" H 2750 1450 50  0001 C CNN
F 3 "" H 2750 1450 50  0001 C CNN
	1    2750 1450
	0    1    1    0   
$EndComp
Wire Wire Line
	2800 1450 2750 1450
Wire Wire Line
	2850 1800 3100 1800
Wire Wire Line
	3100 1800 3100 1450
Wire Wire Line
	3100 1450 3100 1100
Connection ~ 3100 1450
Text HLabel 3400 1100 2    50   Output ~ 0
EXT_SW
$Comp
L Device:C C20
U 1 1 5E0A4027
P 5000 1650
F 0 "C20" H 5115 1696 50  0000 L CNN
F 1 "33pF 5% 0402" H 5115 1605 50  0000 L CNN
F 2 "Capacitor_SMD:C_0402_1005Metric" H 5038 1500 50  0001 C CNN
F 3 "~" H 5000 1650 50  0001 C CNN
	1    5000 1650
	0    -1   -1   0   
$EndComp
$Comp
L Device:C C22
U 1 1 5E0B38E3
P 6300 1200
F 0 "C22" H 6415 1246 50  0000 L CNN
F 1 "2.2pFpF +/-0.1pF 0402" H 6415 1155 50  0000 L CNN
F 2 "Capacitor_SMD:C_0402_1005Metric" H 6338 1050 50  0001 C CNN
F 3 "~" H 6300 1200 50  0001 C CNN
	1    6300 1200
	-1   0    0    1   
$EndComp
$Comp
L power:GND #PWR0121
U 1 1 5E0B38E9
P 6300 1400
F 0 "#PWR0121" H 6300 1150 50  0001 C CNN
F 1 "GND" H 6305 1227 50  0000 C CNN
F 2 "" H 6300 1400 50  0001 C CNN
F 3 "" H 6300 1400 50  0001 C CNN
	1    6300 1400
	1    0    0    -1  
$EndComp
Wire Wire Line
	5450 1650 5450 1050
Wire Wire Line
	6300 1400 6300 1350
Wire Wire Line
	4850 1650 3950 1650
Wire Wire Line
	3950 1650 3950 1900
Wire Wire Line
	3950 1900 2850 1900
Wire Wire Line
	1100 6650 1100 6400
Connection ~ 1100 6400
Wire Wire Line
	1100 6400 1200 6400
Text HLabel 700  5900 0    50   Output ~ 0
3V3
Wire Wire Line
	700  5900 750  5900
Connection ~ 750  5900
Connection ~ 6300 1050
Wire Wire Line
	6400 1050 6400 1350
Wire Wire Line
	6400 1350 6300 1350
Connection ~ 6300 1350
Wire Wire Line
	5450 1050 6300 1050
Wire Wire Line
	5150 1650 5450 1650
Wire Wire Line
	1100 6650 1550 6650
$Comp
L L80RE_Lora_murata-rescue:BMIS-201-F-stm32wb_lora_EU_card-rescue U3
U 1 1 613AB25D
P 1650 6650
F 0 "U3" H 1993 6892 50  0000 C CNN
F 1 "BMIS-201-F-stm32wb_lora_EU_card-rescue" H 1993 6801 50  0000 C CNN
F 2 "stm32wb_lora_EU_card444:Laird_Technologies_BMI-S-201-F_13.66x12.70mm" H 1650 6650 50  0001 L BNN
F 3 "" H 1650 6650 50  0001 L BNN
	1    1650 6650
	1    0    0    -1  
$EndComp
$Comp
L Device:Antenna_Shield AE?
U 1 1 6127669A
P 6300 850
AR Path="/6005F2C2/6127669A" Ref="AE?"  Part="1" 
AR Path="/600048E7/6127669A" Ref="AE1"  Part="1" 
F 0 "AE1" H 6444 889 50  0000 L CNN
F 1 "Antenna_Shield" H 6444 798 50  0000 L CNN
F 2 "RF_Antenna:Texas_SWRA416_868MHz_915MHz" H 6300 950 50  0001 C CNN
F 3 "~" H 6300 950 50  0001 C CNN
	1    6300 850 
	1    0    0    -1  
$EndComp
$Comp
L L80RE_Lora_murata-rescue:PE4259SCBC-Z-stm32wb_lora_EU_card-rescue U1
U 1 1 5DEEEC16
P 2400 1900
F 0 "U1" H 2500 2225 50  0000 C CNN
F 1 "PE4259SCBC-Z" H 2500 2134 50  0000 C CNN
F 2 "stm32wb_lora_EU_card444:SC70-SC6" H 2450 1900 50  0001 C CNN
F 3 "" H 2450 1900 50  0001 C CNN
	1    2400 1900
	1    0    0    -1  
$EndComp
$EndSCHEMATC
