
(module SON80P400X400X60-9N (layer F.Cu) (tedit 60DC4410)
  (descr "")
  (fp_text reference REF** (at -1.22944 -2.561964 0) (layer F.SilkS)
    (effects (font (size 0.48134488189 0.48134488189) (thickness 0.15)))
  )
  (fp_text value SON80P400X400X60-9N (at 3.2502935 2.9516335 0) (layer F.Fab)
    (effects (font (size 0.481049606299 0.481049606299) (thickness 0.15)))
  )
  (fp_line (start -2.0 -2.0) (end -2.0 2.0) (layer F.Fab) (width 0.127))
  (fp_line (start -2.0 2.0) (end 2.0 2.0) (layer F.SilkS) (width 0.127))
  (fp_line (start 2.0 2.0) (end 2.0 -2.0) (layer F.Fab) (width 0.127))
  (fp_line (start 2.0 -2.0) (end -2.0 -2.0) (layer F.SilkS) (width 0.127))
  (fp_circle (center -2.33 -1.75) (end -2.13 -1.75) (layer F.SilkS) (width 0.0))
  (fp_line (start -2.75 -2.25) (end 2.75 -2.25) (layer F.CrtYd) (width 0.05))
  (fp_line (start 2.75 -2.25) (end 2.75 2.25) (layer F.CrtYd) (width 0.05))
  (fp_line (start 2.75 2.25) (end -2.75 2.25) (layer F.CrtYd) (width 0.05))
  (fp_line (start -2.75 2.25) (end -2.75 -2.25) (layer F.CrtYd) (width 0.05))
  (fp_poly
    (pts
      (xy 0.125342 -1.245)
      (xy 0.895 -1.245)
      (xy 0.895 -0.125342)
      (xy 0.125342 -0.125342)
    ) (layer F.Paste) (width 0.01)
  )
  (fp_poly
    (pts
      (xy -0.896769 0.125)
      (xy -0.125 0.125)
      (xy -0.125 1.24746)
      (xy -0.896769 1.24746)
    ) (layer F.Paste) (width 0.01)
  )
  (fp_poly
    (pts
      (xy -0.897981 -1.245)
      (xy -0.125 -1.245)
      (xy -0.125 -0.125416)
      (xy -0.897981 -0.125416)
    ) (layer F.Paste) (width 0.01)
  )
  (fp_poly
    (pts
      (xy 0.125332 0.125)
      (xy 0.895 0.125)
      (xy 0.895 1.2483)
      (xy 0.125332 1.2483)
    ) (layer F.Paste) (width 0.01)
  )
  (pad 1 smd rect (at -1.95 -1.2) (size 0.84 0.32) (layers F.Cu F.Mask F.Paste))
  (pad 2 smd rect (at -1.95 -0.4) (size 0.84 0.32) (layers F.Cu F.Mask F.Paste))
  (pad 3 smd rect (at -1.95 0.4) (size 0.84 0.32) (layers F.Cu F.Mask F.Paste))
  (pad 4 smd rect (at -1.95 1.2) (size 0.84 0.32) (layers F.Cu F.Mask F.Paste))
  (pad 5 smd rect (at 1.95 1.2) (size 0.84 0.32) (layers F.Cu F.Mask F.Paste))
  (pad 6 smd rect (at 1.95 0.4) (size 0.84 0.32) (layers F.Cu F.Mask F.Paste))
  (pad 7 smd rect (at 1.95 -0.4) (size 0.84 0.32) (layers F.Cu F.Mask F.Paste))
  (pad 8 smd rect (at 1.95 -1.2) (size 0.84 0.32) (layers F.Cu F.Mask F.Paste))
  (pad 9 smd rect (at 0.0 0.0) (size 2.3 3.0) (layers F.Cu F.Mask))
)