(module LED_APHF1608LSEEQBDZGKC (layer F.Cu) (tedit 5FD9F69C)
  (fp_text reference REF** (at 0.282 -1.4064) (layer F.SilkS)
    (effects (font (size 0.64 0.64) (thickness 0.015)))
  )
  (fp_text value LED_APHF1608LSEEQBDZGKC (at 7.5972 1.4564) (layer F.Fab)
    (effects (font (size 0.64 0.64) (thickness 0.015)))
  )
  (fp_circle (center -1.5 -0.4) (end -1.4 -0.4) (layer F.SilkS) (width 0.2))
  (fp_circle (center -1.5 -0.4) (end -1.4 -0.4) (layer F.Fab) (width 0.2))
  (fp_line (start -1.2 0.85) (end -1.2 -0.85) (layer F.CrtYd) (width 0.05))
  (fp_line (start 1.2 0.85) (end -1.2 0.85) (layer F.CrtYd) (width 0.05))
  (fp_line (start 1.2 -0.85) (end 1.2 0.85) (layer F.CrtYd) (width 0.05))
  (fp_line (start -1.2 -0.85) (end 1.2 -0.85) (layer F.CrtYd) (width 0.05))
  (fp_line (start -0.1365 0.475) (end 0.1365 0.475) (layer F.SilkS) (width 0.127))
  (fp_line (start -0.1365 -0.475) (end 0.1365 -0.475) (layer F.SilkS) (width 0.127))
  (fp_line (start -0.875 0.475) (end -0.875 -0.475) (layer F.Fab) (width 0.127))
  (fp_line (start 0.875 0.475) (end -0.875 0.475) (layer F.Fab) (width 0.127))
  (fp_line (start 0.875 -0.475) (end 0.875 0.475) (layer F.Fab) (width 0.127))
  (fp_line (start -0.875 -0.475) (end 0.875 -0.475) (layer F.Fab) (width 0.127))
  (pad 3 smd rect (at 0.65 0.35) (size 0.5 0.4) (layers F.Cu F.Paste F.Mask))
  (pad 2 smd rect (at -0.65 0.35) (size 0.5 0.4) (layers F.Cu F.Paste F.Mask))
  (pad 4 smd rect (at 0.65 -0.35) (size 0.5 0.4) (layers F.Cu F.Paste F.Mask))
  (pad 1 smd rect (at -0.65 -0.35) (size 0.5 0.4) (layers F.Cu F.Paste F.Mask))
)
