(module XCVR_L80RE-M37 (layer F.Cu) (tedit 5FD9AE3D)
  (fp_text reference REF** (at -6.985 -12.385) (layer F.SilkS)
    (effects (font (size 1 1) (thickness 0.015)))
  )
  (fp_text value XCVR_L80RE-M37 (at -1.27 11.365) (layer F.Fab)
    (effects (font (size 1 1) (thickness 0.015)))
  )
  (fp_line (start -12 10.575) (end -12 -11.575) (layer F.CrtYd) (width 0.05))
  (fp_line (start 12 10.575) (end -12 10.575) (layer F.CrtYd) (width 0.05))
  (fp_line (start 12 -11.575) (end 12 10.575) (layer F.CrtYd) (width 0.05))
  (fp_line (start -12 -11.575) (end 12 -11.575) (layer F.CrtYd) (width 0.05))
  (fp_circle (center -9.4 -7.5) (end -9.3 -7.5) (layer F.Fab) (width 0.2))
  (fp_circle (center -9.4 -7.5) (end -9.3 -7.5) (layer F.SilkS) (width 0.2))
  (fp_line (start -8.075 7.575) (end -8.075 7.4) (layer F.SilkS) (width 0.127))
  (fp_line (start 8.075 7.575) (end 8.075 7.4) (layer F.SilkS) (width 0.127))
  (fp_line (start 8.075 -8.575) (end 8.075 -7.4) (layer F.SilkS) (width 0.127))
  (fp_line (start -8.075 -8.575) (end -8.075 -7.4) (layer F.SilkS) (width 0.127))
  (fp_line (start 8.075 7.575) (end -8.075 7.575) (layer F.SilkS) (width 0.127))
  (fp_line (start -8.075 -8.575) (end 8.075 -8.575) (layer F.SilkS) (width 0.127))
  (fp_line (start -8.075 7.575) (end -8.075 -8.575) (layer F.Fab) (width 0.127))
  (fp_line (start 8.075 7.575) (end -8.075 7.575) (layer F.Fab) (width 0.127))
  (fp_line (start 8.075 -8.575) (end 8.075 7.575) (layer F.Fab) (width 0.127))
  (fp_line (start -8.075 -8.575) (end 8.075 -8.575) (layer F.Fab) (width 0.127))
  (fp_poly (pts (xy -8 -6.85) (xy -7.1 -6.85) (xy -7.047736 -6.847261) (xy -6.996044 -6.839074)
    (xy -6.945492 -6.825528) (xy -6.896632 -6.806773) (xy -6.85 -6.783013) (xy -6.806107 -6.754508)
    (xy -6.765435 -6.721572) (xy -6.728428 -6.684565) (xy -6.695492 -6.643893) (xy -6.666987 -6.6)
    (xy -6.643227 -6.553368) (xy -6.624472 -6.504508) (xy -6.610926 -6.453956) (xy -6.602739 -6.402264)
    (xy -6.6 -6.35) (xy -6.602739 -6.297736) (xy -6.610926 -6.246044) (xy -6.624472 -6.195492)
    (xy -6.643227 -6.146632) (xy -6.666987 -6.1) (xy -6.695492 -6.056107) (xy -6.728428 -6.015435)
    (xy -6.765435 -5.978428) (xy -6.806107 -5.945492) (xy -6.85 -5.916987) (xy -6.896632 -5.893227)
    (xy -6.945492 -5.874472) (xy -6.996044 -5.860926) (xy -7.047736 -5.852739) (xy -7.1 -5.85)
    (xy -8.9 -5.85) (xy -8.952264 -5.852739) (xy -9.003956 -5.860926) (xy -9.054508 -5.874472)
    (xy -9.103368 -5.893227) (xy -9.15 -5.916987) (xy -9.193893 -5.945492) (xy -9.234565 -5.978428)
    (xy -9.271572 -6.015435) (xy -9.304508 -6.056107) (xy -9.333013 -6.1) (xy -9.356773 -6.146632)
    (xy -9.375528 -6.195492) (xy -9.389074 -6.246044) (xy -9.397261 -6.297736) (xy -9.4 -6.35)
    (xy -9.397261 -6.402264) (xy -9.389074 -6.453956) (xy -9.375528 -6.504508) (xy -9.356773 -6.553368)
    (xy -9.333013 -6.6) (xy -9.304508 -6.643893) (xy -9.271572 -6.684565) (xy -9.234565 -6.721572)
    (xy -9.193893 -6.754508) (xy -9.15 -6.783013) (xy -9.103368 -6.806773) (xy -9.054508 -6.825528)
    (xy -9.003956 -6.839074) (xy -8.952264 -6.847261) (xy -8.9 -6.85) (xy -8 -6.85)) (layer F.Paste) (width 0.0001))
  (fp_poly (pts (xy -8 -4.31) (xy -7.1 -4.31) (xy -7.047736 -4.307261) (xy -6.996044 -4.299074)
    (xy -6.945492 -4.285528) (xy -6.896632 -4.266773) (xy -6.85 -4.243013) (xy -6.806107 -4.214508)
    (xy -6.765435 -4.181572) (xy -6.728428 -4.144565) (xy -6.695492 -4.103893) (xy -6.666987 -4.06)
    (xy -6.643227 -4.013368) (xy -6.624472 -3.964508) (xy -6.610926 -3.913956) (xy -6.602739 -3.862264)
    (xy -6.6 -3.81) (xy -6.602739 -3.757736) (xy -6.610926 -3.706044) (xy -6.624472 -3.655492)
    (xy -6.643227 -3.606632) (xy -6.666987 -3.56) (xy -6.695492 -3.516107) (xy -6.728428 -3.475435)
    (xy -6.765435 -3.438428) (xy -6.806107 -3.405492) (xy -6.85 -3.376987) (xy -6.896632 -3.353227)
    (xy -6.945492 -3.334472) (xy -6.996044 -3.320926) (xy -7.047736 -3.312739) (xy -7.1 -3.31)
    (xy -8.9 -3.31) (xy -8.952264 -3.312739) (xy -9.003956 -3.320926) (xy -9.054508 -3.334472)
    (xy -9.103368 -3.353227) (xy -9.15 -3.376987) (xy -9.193893 -3.405492) (xy -9.234565 -3.438428)
    (xy -9.271572 -3.475435) (xy -9.304508 -3.516107) (xy -9.333013 -3.56) (xy -9.356773 -3.606632)
    (xy -9.375528 -3.655492) (xy -9.389074 -3.706044) (xy -9.397261 -3.757736) (xy -9.4 -3.81)
    (xy -9.397261 -3.862264) (xy -9.389074 -3.913956) (xy -9.375528 -3.964508) (xy -9.356773 -4.013368)
    (xy -9.333013 -4.06) (xy -9.304508 -4.103893) (xy -9.271572 -4.144565) (xy -9.234565 -4.181572)
    (xy -9.193893 -4.214508) (xy -9.15 -4.243013) (xy -9.103368 -4.266773) (xy -9.054508 -4.285528)
    (xy -9.003956 -4.299074) (xy -8.952264 -4.307261) (xy -8.9 -4.31) (xy -8 -4.31)) (layer F.Paste) (width 0.0001))
  (fp_poly (pts (xy -8 5.85) (xy -7.1 5.85) (xy -7.047736 5.852739) (xy -6.996044 5.860926)
    (xy -6.945492 5.874472) (xy -6.896632 5.893227) (xy -6.85 5.916987) (xy -6.806107 5.945492)
    (xy -6.765435 5.978428) (xy -6.728428 6.015435) (xy -6.695492 6.056107) (xy -6.666987 6.1)
    (xy -6.643227 6.146632) (xy -6.624472 6.195492) (xy -6.610926 6.246044) (xy -6.602739 6.297736)
    (xy -6.6 6.35) (xy -6.602739 6.402264) (xy -6.610926 6.453956) (xy -6.624472 6.504508)
    (xy -6.643227 6.553368) (xy -6.666987 6.6) (xy -6.695492 6.643893) (xy -6.728428 6.684565)
    (xy -6.765435 6.721572) (xy -6.806107 6.754508) (xy -6.85 6.783013) (xy -6.896632 6.806773)
    (xy -6.945492 6.825528) (xy -6.996044 6.839074) (xy -7.047736 6.847261) (xy -7.1 6.85)
    (xy -8.9 6.85) (xy -8.952264 6.847261) (xy -9.003956 6.839074) (xy -9.054508 6.825528)
    (xy -9.103368 6.806773) (xy -9.15 6.783013) (xy -9.193893 6.754508) (xy -9.234565 6.721572)
    (xy -9.271572 6.684565) (xy -9.304508 6.643893) (xy -9.333013 6.6) (xy -9.356773 6.553368)
    (xy -9.375528 6.504508) (xy -9.389074 6.453956) (xy -9.397261 6.402264) (xy -9.4 6.35)
    (xy -9.397261 6.297736) (xy -9.389074 6.246044) (xy -9.375528 6.195492) (xy -9.356773 6.146632)
    (xy -9.333013 6.1) (xy -9.304508 6.056107) (xy -9.271572 6.015435) (xy -9.234565 5.978428)
    (xy -9.193893 5.945492) (xy -9.15 5.916987) (xy -9.103368 5.893227) (xy -9.054508 5.874472)
    (xy -9.003956 5.860926) (xy -8.952264 5.852739) (xy -8.9 5.85) (xy -8 5.85)) (layer F.Paste) (width 0.0001))
  (fp_poly (pts (xy -8 3.31) (xy -7.1 3.31) (xy -7.047736 3.312739) (xy -6.996044 3.320926)
    (xy -6.945492 3.334472) (xy -6.896632 3.353227) (xy -6.85 3.376987) (xy -6.806107 3.405492)
    (xy -6.765435 3.438428) (xy -6.728428 3.475435) (xy -6.695492 3.516107) (xy -6.666987 3.56)
    (xy -6.643227 3.606632) (xy -6.624472 3.655492) (xy -6.610926 3.706044) (xy -6.602739 3.757736)
    (xy -6.6 3.81) (xy -6.602739 3.862264) (xy -6.610926 3.913956) (xy -6.624472 3.964508)
    (xy -6.643227 4.013368) (xy -6.666987 4.06) (xy -6.695492 4.103893) (xy -6.728428 4.144565)
    (xy -6.765435 4.181572) (xy -6.806107 4.214508) (xy -6.85 4.243013) (xy -6.896632 4.266773)
    (xy -6.945492 4.285528) (xy -6.996044 4.299074) (xy -7.047736 4.307261) (xy -7.1 4.31)
    (xy -8.9 4.31) (xy -8.952264 4.307261) (xy -9.003956 4.299074) (xy -9.054508 4.285528)
    (xy -9.103368 4.266773) (xy -9.15 4.243013) (xy -9.193893 4.214508) (xy -9.234565 4.181572)
    (xy -9.271572 4.144565) (xy -9.304508 4.103893) (xy -9.333013 4.06) (xy -9.356773 4.013368)
    (xy -9.375528 3.964508) (xy -9.389074 3.913956) (xy -9.397261 3.862264) (xy -9.4 3.81)
    (xy -9.397261 3.757736) (xy -9.389074 3.706044) (xy -9.375528 3.655492) (xy -9.356773 3.606632)
    (xy -9.333013 3.56) (xy -9.304508 3.516107) (xy -9.271572 3.475435) (xy -9.234565 3.438428)
    (xy -9.193893 3.405492) (xy -9.15 3.376987) (xy -9.103368 3.353227) (xy -9.054508 3.334472)
    (xy -9.003956 3.320926) (xy -8.952264 3.312739) (xy -8.9 3.31) (xy -8 3.31)) (layer F.Paste) (width 0.0001))
  (fp_poly (pts (xy -8 0.77) (xy -7.1 0.77) (xy -7.047736 0.772739) (xy -6.996044 0.780926)
    (xy -6.945492 0.794472) (xy -6.896632 0.813227) (xy -6.85 0.836987) (xy -6.806107 0.865492)
    (xy -6.765435 0.898428) (xy -6.728428 0.935435) (xy -6.695492 0.976107) (xy -6.666987 1.02)
    (xy -6.643227 1.066632) (xy -6.624472 1.115492) (xy -6.610926 1.166044) (xy -6.602739 1.217736)
    (xy -6.6 1.27) (xy -6.602739 1.322264) (xy -6.610926 1.373956) (xy -6.624472 1.424508)
    (xy -6.643227 1.473368) (xy -6.666987 1.52) (xy -6.695492 1.563893) (xy -6.728428 1.604565)
    (xy -6.765435 1.641572) (xy -6.806107 1.674508) (xy -6.85 1.703013) (xy -6.896632 1.726773)
    (xy -6.945492 1.745528) (xy -6.996044 1.759074) (xy -7.047736 1.767261) (xy -7.1 1.77)
    (xy -8.9 1.77) (xy -8.952264 1.767261) (xy -9.003956 1.759074) (xy -9.054508 1.745528)
    (xy -9.103368 1.726773) (xy -9.15 1.703013) (xy -9.193893 1.674508) (xy -9.234565 1.641572)
    (xy -9.271572 1.604565) (xy -9.304508 1.563893) (xy -9.333013 1.52) (xy -9.356773 1.473368)
    (xy -9.375528 1.424508) (xy -9.389074 1.373956) (xy -9.397261 1.322264) (xy -9.4 1.27)
    (xy -9.397261 1.217736) (xy -9.389074 1.166044) (xy -9.375528 1.115492) (xy -9.356773 1.066632)
    (xy -9.333013 1.02) (xy -9.304508 0.976107) (xy -9.271572 0.935435) (xy -9.234565 0.898428)
    (xy -9.193893 0.865492) (xy -9.15 0.836987) (xy -9.103368 0.813227) (xy -9.054508 0.794472)
    (xy -9.003956 0.780926) (xy -8.952264 0.772739) (xy -8.9 0.77) (xy -8 0.77)) (layer F.Paste) (width 0.0001))
  (fp_poly (pts (xy 8 5.85) (xy 8.9 5.85) (xy 8.952264 5.852739) (xy 9.003956 5.860926)
    (xy 9.054508 5.874472) (xy 9.103368 5.893227) (xy 9.15 5.916987) (xy 9.193893 5.945492)
    (xy 9.234565 5.978428) (xy 9.271572 6.015435) (xy 9.304508 6.056107) (xy 9.333013 6.1)
    (xy 9.356773 6.146632) (xy 9.375528 6.195492) (xy 9.389074 6.246044) (xy 9.397261 6.297736)
    (xy 9.4 6.35) (xy 9.397261 6.402264) (xy 9.389074 6.453956) (xy 9.375528 6.504508)
    (xy 9.356773 6.553368) (xy 9.333013 6.6) (xy 9.304508 6.643893) (xy 9.271572 6.684565)
    (xy 9.234565 6.721572) (xy 9.193893 6.754508) (xy 9.15 6.783013) (xy 9.103368 6.806773)
    (xy 9.054508 6.825528) (xy 9.003956 6.839074) (xy 8.952264 6.847261) (xy 8.9 6.85)
    (xy 7.1 6.85) (xy 7.047736 6.847261) (xy 6.996044 6.839074) (xy 6.945492 6.825528)
    (xy 6.896632 6.806773) (xy 6.85 6.783013) (xy 6.806107 6.754508) (xy 6.765435 6.721572)
    (xy 6.728428 6.684565) (xy 6.695492 6.643893) (xy 6.666987 6.6) (xy 6.643227 6.553368)
    (xy 6.624472 6.504508) (xy 6.610926 6.453956) (xy 6.602739 6.402264) (xy 6.6 6.35)
    (xy 6.602739 6.297736) (xy 6.610926 6.246044) (xy 6.624472 6.195492) (xy 6.643227 6.146632)
    (xy 6.666987 6.1) (xy 6.695492 6.056107) (xy 6.728428 6.015435) (xy 6.765435 5.978428)
    (xy 6.806107 5.945492) (xy 6.85 5.916987) (xy 6.896632 5.893227) (xy 6.945492 5.874472)
    (xy 6.996044 5.860926) (xy 7.047736 5.852739) (xy 7.1 5.85) (xy 8 5.85)) (layer F.Paste) (width 0.0001))
  (fp_poly (pts (xy 8 3.31) (xy 8.9 3.31) (xy 8.952264 3.312739) (xy 9.003956 3.320926)
    (xy 9.054508 3.334472) (xy 9.103368 3.353227) (xy 9.15 3.376987) (xy 9.193893 3.405492)
    (xy 9.234565 3.438428) (xy 9.271572 3.475435) (xy 9.304508 3.516107) (xy 9.333013 3.56)
    (xy 9.356773 3.606632) (xy 9.375528 3.655492) (xy 9.389074 3.706044) (xy 9.397261 3.757736)
    (xy 9.4 3.81) (xy 9.397261 3.862264) (xy 9.389074 3.913956) (xy 9.375528 3.964508)
    (xy 9.356773 4.013368) (xy 9.333013 4.06) (xy 9.304508 4.103893) (xy 9.271572 4.144565)
    (xy 9.234565 4.181572) (xy 9.193893 4.214508) (xy 9.15 4.243013) (xy 9.103368 4.266773)
    (xy 9.054508 4.285528) (xy 9.003956 4.299074) (xy 8.952264 4.307261) (xy 8.9 4.31)
    (xy 7.1 4.31) (xy 7.047736 4.307261) (xy 6.996044 4.299074) (xy 6.945492 4.285528)
    (xy 6.896632 4.266773) (xy 6.85 4.243013) (xy 6.806107 4.214508) (xy 6.765435 4.181572)
    (xy 6.728428 4.144565) (xy 6.695492 4.103893) (xy 6.666987 4.06) (xy 6.643227 4.013368)
    (xy 6.624472 3.964508) (xy 6.610926 3.913956) (xy 6.602739 3.862264) (xy 6.6 3.81)
    (xy 6.602739 3.757736) (xy 6.610926 3.706044) (xy 6.624472 3.655492) (xy 6.643227 3.606632)
    (xy 6.666987 3.56) (xy 6.695492 3.516107) (xy 6.728428 3.475435) (xy 6.765435 3.438428)
    (xy 6.806107 3.405492) (xy 6.85 3.376987) (xy 6.896632 3.353227) (xy 6.945492 3.334472)
    (xy 6.996044 3.320926) (xy 7.047736 3.312739) (xy 7.1 3.31) (xy 8 3.31)) (layer F.Paste) (width 0.0001))
  (fp_poly (pts (xy 8 0.77) (xy 8.9 0.77) (xy 8.952264 0.772739) (xy 9.003956 0.780926)
    (xy 9.054508 0.794472) (xy 9.103368 0.813227) (xy 9.15 0.836987) (xy 9.193893 0.865492)
    (xy 9.234565 0.898428) (xy 9.271572 0.935435) (xy 9.304508 0.976107) (xy 9.333013 1.02)
    (xy 9.356773 1.066632) (xy 9.375528 1.115492) (xy 9.389074 1.166044) (xy 9.397261 1.217736)
    (xy 9.4 1.27) (xy 9.397261 1.322264) (xy 9.389074 1.373956) (xy 9.375528 1.424508)
    (xy 9.356773 1.473368) (xy 9.333013 1.52) (xy 9.304508 1.563893) (xy 9.271572 1.604565)
    (xy 9.234565 1.641572) (xy 9.193893 1.674508) (xy 9.15 1.703013) (xy 9.103368 1.726773)
    (xy 9.054508 1.745528) (xy 9.003956 1.759074) (xy 8.952264 1.767261) (xy 8.9 1.77)
    (xy 7.1 1.77) (xy 7.047736 1.767261) (xy 6.996044 1.759074) (xy 6.945492 1.745528)
    (xy 6.896632 1.726773) (xy 6.85 1.703013) (xy 6.806107 1.674508) (xy 6.765435 1.641572)
    (xy 6.728428 1.604565) (xy 6.695492 1.563893) (xy 6.666987 1.52) (xy 6.643227 1.473368)
    (xy 6.624472 1.424508) (xy 6.610926 1.373956) (xy 6.602739 1.322264) (xy 6.6 1.27)
    (xy 6.602739 1.217736) (xy 6.610926 1.166044) (xy 6.624472 1.115492) (xy 6.643227 1.066632)
    (xy 6.666987 1.02) (xy 6.695492 0.976107) (xy 6.728428 0.935435) (xy 6.765435 0.898428)
    (xy 6.806107 0.865492) (xy 6.85 0.836987) (xy 6.896632 0.813227) (xy 6.945492 0.794472)
    (xy 6.996044 0.780926) (xy 7.047736 0.772739) (xy 7.1 0.77) (xy 8 0.77)) (layer F.Paste) (width 0.0001))
  (fp_poly (pts (xy 8 -6.85) (xy 8.9 -6.85) (xy 8.952264 -6.847261) (xy 9.003956 -6.839074)
    (xy 9.054508 -6.825528) (xy 9.103368 -6.806773) (xy 9.15 -6.783013) (xy 9.193893 -6.754508)
    (xy 9.234565 -6.721572) (xy 9.271572 -6.684565) (xy 9.304508 -6.643893) (xy 9.333013 -6.6)
    (xy 9.356773 -6.553368) (xy 9.375528 -6.504508) (xy 9.389074 -6.453956) (xy 9.397261 -6.402264)
    (xy 9.4 -6.35) (xy 9.397261 -6.297736) (xy 9.389074 -6.246044) (xy 9.375528 -6.195492)
    (xy 9.356773 -6.146632) (xy 9.333013 -6.1) (xy 9.304508 -6.056107) (xy 9.271572 -6.015435)
    (xy 9.234565 -5.978428) (xy 9.193893 -5.945492) (xy 9.15 -5.916987) (xy 9.103368 -5.893227)
    (xy 9.054508 -5.874472) (xy 9.003956 -5.860926) (xy 8.952264 -5.852739) (xy 8.9 -5.85)
    (xy 7.1 -5.85) (xy 7.047736 -5.852739) (xy 6.996044 -5.860926) (xy 6.945492 -5.874472)
    (xy 6.896632 -5.893227) (xy 6.85 -5.916987) (xy 6.806107 -5.945492) (xy 6.765435 -5.978428)
    (xy 6.728428 -6.015435) (xy 6.695492 -6.056107) (xy 6.666987 -6.1) (xy 6.643227 -6.146632)
    (xy 6.624472 -6.195492) (xy 6.610926 -6.246044) (xy 6.602739 -6.297736) (xy 6.6 -6.35)
    (xy 6.602739 -6.402264) (xy 6.610926 -6.453956) (xy 6.624472 -6.504508) (xy 6.643227 -6.553368)
    (xy 6.666987 -6.6) (xy 6.695492 -6.643893) (xy 6.728428 -6.684565) (xy 6.765435 -6.721572)
    (xy 6.806107 -6.754508) (xy 6.85 -6.783013) (xy 6.896632 -6.806773) (xy 6.945492 -6.825528)
    (xy 6.996044 -6.839074) (xy 7.047736 -6.847261) (xy 7.1 -6.85) (xy 8 -6.85)) (layer F.Paste) (width 0.0001))
  (fp_poly (pts (xy 8 -4.31) (xy 8.9 -4.31) (xy 8.952264 -4.307261) (xy 9.003956 -4.299074)
    (xy 9.054508 -4.285528) (xy 9.103368 -4.266773) (xy 9.15 -4.243013) (xy 9.193893 -4.214508)
    (xy 9.234565 -4.181572) (xy 9.271572 -4.144565) (xy 9.304508 -4.103893) (xy 9.333013 -4.06)
    (xy 9.356773 -4.013368) (xy 9.375528 -3.964508) (xy 9.389074 -3.913956) (xy 9.397261 -3.862264)
    (xy 9.4 -3.81) (xy 9.397261 -3.757736) (xy 9.389074 -3.706044) (xy 9.375528 -3.655492)
    (xy 9.356773 -3.606632) (xy 9.333013 -3.56) (xy 9.304508 -3.516107) (xy 9.271572 -3.475435)
    (xy 9.234565 -3.438428) (xy 9.193893 -3.405492) (xy 9.15 -3.376987) (xy 9.103368 -3.353227)
    (xy 9.054508 -3.334472) (xy 9.003956 -3.320926) (xy 8.952264 -3.312739) (xy 8.9 -3.31)
    (xy 7.1 -3.31) (xy 7.047736 -3.312739) (xy 6.996044 -3.320926) (xy 6.945492 -3.334472)
    (xy 6.896632 -3.353227) (xy 6.85 -3.376987) (xy 6.806107 -3.405492) (xy 6.765435 -3.438428)
    (xy 6.728428 -3.475435) (xy 6.695492 -3.516107) (xy 6.666987 -3.56) (xy 6.643227 -3.606632)
    (xy 6.624472 -3.655492) (xy 6.610926 -3.706044) (xy 6.602739 -3.757736) (xy 6.6 -3.81)
    (xy 6.602739 -3.862264) (xy 6.610926 -3.913956) (xy 6.624472 -3.964508) (xy 6.643227 -4.013368)
    (xy 6.666987 -4.06) (xy 6.695492 -4.103893) (xy 6.728428 -4.144565) (xy 6.765435 -4.181572)
    (xy 6.806107 -4.214508) (xy 6.85 -4.243013) (xy 6.896632 -4.266773) (xy 6.945492 -4.285528)
    (xy 6.996044 -4.299074) (xy 7.047736 -4.307261) (xy 7.1 -4.31) (xy 8 -4.31)) (layer F.Paste) (width 0.0001))
  (fp_poly (pts (xy 8 -1.77) (xy 8.9 -1.77) (xy 8.952264 -1.767261) (xy 9.003956 -1.759074)
    (xy 9.054508 -1.745528) (xy 9.103368 -1.726773) (xy 9.15 -1.703013) (xy 9.193893 -1.674508)
    (xy 9.234565 -1.641572) (xy 9.271572 -1.604565) (xy 9.304508 -1.563893) (xy 9.333013 -1.52)
    (xy 9.356773 -1.473368) (xy 9.375528 -1.424508) (xy 9.389074 -1.373956) (xy 9.397261 -1.322264)
    (xy 9.4 -1.27) (xy 9.397261 -1.217736) (xy 9.389074 -1.166044) (xy 9.375528 -1.115492)
    (xy 9.356773 -1.066632) (xy 9.333013 -1.02) (xy 9.304508 -0.976107) (xy 9.271572 -0.935435)
    (xy 9.234565 -0.898428) (xy 9.193893 -0.865492) (xy 9.15 -0.836987) (xy 9.103368 -0.813227)
    (xy 9.054508 -0.794472) (xy 9.003956 -0.780926) (xy 8.952264 -0.772739) (xy 8.9 -0.77)
    (xy 7.1 -0.77) (xy 7.047736 -0.772739) (xy 6.996044 -0.780926) (xy 6.945492 -0.794472)
    (xy 6.896632 -0.813227) (xy 6.85 -0.836987) (xy 6.806107 -0.865492) (xy 6.765435 -0.898428)
    (xy 6.728428 -0.935435) (xy 6.695492 -0.976107) (xy 6.666987 -1.02) (xy 6.643227 -1.066632)
    (xy 6.624472 -1.115492) (xy 6.610926 -1.166044) (xy 6.602739 -1.217736) (xy 6.6 -1.27)
    (xy 6.602739 -1.322264) (xy 6.610926 -1.373956) (xy 6.624472 -1.424508) (xy 6.643227 -1.473368)
    (xy 6.666987 -1.52) (xy 6.695492 -1.563893) (xy 6.728428 -1.604565) (xy 6.765435 -1.641572)
    (xy 6.806107 -1.674508) (xy 6.85 -1.703013) (xy 6.896632 -1.726773) (xy 6.945492 -1.745528)
    (xy 6.996044 -1.759074) (xy 7.047736 -1.767261) (xy 7.1 -1.77) (xy 8 -1.77)) (layer F.Paste) (width 0.0001))
  (fp_poly (pts (xy -8 -1.77) (xy -7.1 -1.77) (xy -7.047736 -1.767261) (xy -6.996044 -1.759074)
    (xy -6.945492 -1.745528) (xy -6.896632 -1.726773) (xy -6.85 -1.703013) (xy -6.806107 -1.674508)
    (xy -6.765435 -1.641572) (xy -6.728428 -1.604565) (xy -6.695492 -1.563893) (xy -6.666987 -1.52)
    (xy -6.643227 -1.473368) (xy -6.624472 -1.424508) (xy -6.610926 -1.373956) (xy -6.602739 -1.322264)
    (xy -6.6 -1.27) (xy -6.602739 -1.217736) (xy -6.610926 -1.166044) (xy -6.624472 -1.115492)
    (xy -6.643227 -1.066632) (xy -6.666987 -1.02) (xy -6.695492 -0.976107) (xy -6.728428 -0.935435)
    (xy -6.765435 -0.898428) (xy -6.806107 -0.865492) (xy -6.85 -0.836987) (xy -6.896632 -0.813227)
    (xy -6.945492 -0.794472) (xy -6.996044 -0.780926) (xy -7.047736 -0.772739) (xy -7.1 -0.77)
    (xy -8.9 -0.77) (xy -8.952264 -0.772739) (xy -9.003956 -0.780926) (xy -9.054508 -0.794472)
    (xy -9.103368 -0.813227) (xy -9.15 -0.836987) (xy -9.193893 -0.865492) (xy -9.234565 -0.898428)
    (xy -9.271572 -0.935435) (xy -9.304508 -0.976107) (xy -9.333013 -1.02) (xy -9.356773 -1.066632)
    (xy -9.375528 -1.115492) (xy -9.389074 -1.166044) (xy -9.397261 -1.217736) (xy -9.4 -1.27)
    (xy -9.397261 -1.322264) (xy -9.389074 -1.373956) (xy -9.375528 -1.424508) (xy -9.356773 -1.473368)
    (xy -9.333013 -1.52) (xy -9.304508 -1.563893) (xy -9.271572 -1.604565) (xy -9.234565 -1.641572)
    (xy -9.193893 -1.674508) (xy -9.15 -1.703013) (xy -9.103368 -1.726773) (xy -9.054508 -1.745528)
    (xy -9.003956 -1.759074) (xy -8.952264 -1.767261) (xy -8.9 -1.77) (xy -8 -1.77)) (layer F.Paste) (width 0.0001))
  (pad 7 smd oval (at 7.75 6.35) (size 2.5 1) (layers F.Cu F.Mask))
  (pad 8 smd oval (at 7.75 3.81) (size 2.5 1) (layers F.Cu F.Mask))
  (pad 9 smd oval (at 7.75 1.27) (size 2.5 1) (layers F.Cu F.Mask))
  (pad 12 smd oval (at 7.75 -6.35) (size 2.5 1) (layers F.Cu F.Mask))
  (pad 11 smd oval (at 7.75 -3.81) (size 2.5 1) (layers F.Cu F.Mask))
  (pad 6 smd oval (at -7.75 6.35) (size 2.5 1) (layers F.Cu F.Mask))
  (pad 5 smd oval (at -7.75 3.81) (size 2.5 1) (layers F.Cu F.Mask))
  (pad 1 smd oval (at -7.75 -6.35) (size 2.5 1) (layers F.Cu F.Mask))
  (pad 2 smd oval (at -7.75 -3.81) (size 2.5 1) (layers F.Cu F.Mask))
  (pad 4 smd oval (at -7.75 1.27) (size 2.5 1) (layers F.Cu F.Mask))
  (pad 10 smd oval (at 7.75 -1.27) (size 2.5 1) (layers F.Cu F.Mask))
  (pad 3 smd oval (at -7.75 -1.27) (size 2.5 1) (layers F.Cu F.Mask))
)
