(module XDCR_CPS-4013-110T (layer F.Cu) (tedit 5EE20719)
  (fp_text reference REF** (at 0.445 -21.889) (layer F.SilkS)
    (effects (font (size 1.4 1.4) (thickness 0.015)))
  )
  (fp_text value XDCR_CPS-4013-110T (at 12.002 21.889) (layer F.Fab)
    (effects (font (size 1.4 1.4) (thickness 0.015)))
  )
  (fp_text user M (at -3.81 7.62) (layer F.Fab)
    (effects (font (size 1 1) (thickness 0.015)))
  )
  (fp_text user F (at -3.81 -0.635) (layer F.Fab)
    (effects (font (size 1 1) (thickness 0.015)))
  )
  (fp_text user G (at -3.81 -11.43) (layer F.Fab)
    (effects (font (size 1 1) (thickness 0.015)))
  )
  (fp_text user G (at -3.81 -11.43) (layer F.SilkS)
    (effects (font (size 1 1) (thickness 0.015)))
  )
  (fp_text user F (at -3.81 -0.635) (layer F.SilkS)
    (effects (font (size 1 1) (thickness 0.015)))
  )
  (fp_text user M (at -3.81 7.62) (layer F.SilkS)
    (effects (font (size 1 1) (thickness 0.015)))
  )
  (fp_circle (center 0 0) (end 20.25 0) (layer F.CrtYd) (width 0.05))
  (fp_circle (center 0 0) (end 20 0) (layer F.Fab) (width 0.127))
  (fp_circle (center 0 0) (end 20 0) (layer F.SilkS) (width 0.127))
  (pad 1 thru_hole circle (at 0 8) (size 2.5 2.5) (drill 1) (layers *.Cu *.Mask))
  (pad 3 thru_hole circle (at 0 -10.5) (size 2.5 2.5) (drill 1) (layers *.Cu *.Mask))
  (pad 2 thru_hole circle (at 0 0) (size 2.5 2.5) (drill 1) (layers *.Cu *.Mask))
)
